Question 2
…
Code

# Leaflet map

# Data from https://labs.karavia.ch/swiss-boundaries-geojson/
districts <- read_sf(here("data","swiss_districts.geojson"))
districts

Simple feature collection with 159 features and 21 fields
Geometry type: POLYGON
Dimension:     XY
Bounding box:  xmin: 6.063857 ymin: 45.81796 xmax: 10.49217 ymax: 47.80845
Geodetic CRS:  WGS 84
# A tibble: 159 × 22
   UUID          DATUM_AEND DATUM_ERST ERSTELL_J ERSTELL_M REVISION_J REVISION_M
   <chr>         <chr>      <chr>          <int> <chr>          <int> <chr>     
 1 {9D91928E-11… 201611141… 201210261…      2012 10              2020 1         
 2 {18B8E2A0-F0… 201712050… 201210261…      2012 10              2020 1         
 3 {1C504398-48… 201811221… 201210261…      2012 10              2020 1         
 4 {FDA49AE0-D4… 201811221… 201210261…      2012 10              2020 1         
 5 {25673BF2-FF… 201811221… 201210261…      2012 10              2020 1         
 6 {03FA50E3-8A… 201611141… 201210261…      2012 10              2020 1         
 7 {126D2D0A-11… 201512081… 201210261…      2012 10              2020 1         
 8 {A0763AC7-DD… 201712050… 201210261…      2012 10              2020 1         
 9 {37CE1747-36… 201712050… 201210261…      2012 10              2020 1         
10 {78DC04A9-21… 201512081… 201210261…      2012 10              2020 1         
# ℹ 149 more rows
# ℹ 15 more variables: GRUND_AEND <chr>, HERKUNFT <chr>, HERKUNFT_J <int>,
#   HERKUNFT_M <chr>, OBJEKTART <chr>, BEZIRKSNUM <int>, SEE_FLAECH <int>,
#   REVISION_Q <chr>, BEZIRKSFLA <int>, BEZIRK_TEI <chr>, NAME <chr>,
#   KANTONSNUM <int>, ICC <chr>, EINWOHNERZ <int>, geometry <POLYGON [°]>
…
