question_2
…
Where are from the people coming in the canton of Vaud? What kind of trip are they doing?

source(here::here("scripts", "setup.R"))
data <- read.csv(here("data", "TMS_dataset_Vaud_20240314_FINAL.csv"),
                 sep = ";")

### F05_01.ENG ###
#nb of occurrences by country and continents 
OccurencesCountry <- data %>% 
  group_by(data$F05_02.ENG) %>% 
  count(sort = TRUE) %>% 
  print() 

# A tibble: 89 × 2
# Groups:   data$F05_02.ENG [89]
   `data$F05_02.ENG`            n
   <chr>                    <int>
 1 Switzerland                786
 2 France                     358
 3 United Kingdom             187
 4 Germany                    138
 5 United States of America   133
 6 Belgium                     89
 7 Spain                       77
 8 Netherlands                 63
 9 Canada                      50
10 Italy                       44
# ℹ 79 more rows
…
